#
# A fatal error has been detected by the Java Runtime Environment:
#
#  Internal Error (javaClasses.cpp:129), pid=6157, tid=140488614369024
#  fatal error: Invalid layout of preloaded class
#
# JRE version: 7.0_25-b15
# Java VM: Java HotSpot(TM) 64-Bit Server VM (23.25-b01 mixed mode linux-amd64 compressed oops)
# Failed to write core dump. Core dumps have been disabled. To enable core dumping, try "ulimit -c unlimited" before starting Java again
#
# If you would like to submit a bug report, please visit:
#   http://bugreport.sun.com/bugreport/crash.jsp
#

---------------  T H R E A D  ---------------

Current thread (0x00007fc608009000):  JavaThread "Unknown thread" [_thread_in_vm, id=6159, stack(0x00007fc60de45000,0x00007fc60df46000)]

Stack: [0x00007fc60de45000,0x00007fc60df46000],  sp=0x00007fc60df447a0,  free space=1021k
Native frames: (J=compiled Java code, j=interpreted, Vv=VM code, C=native code)
V  [libjvm.so+0x8a1d3a]  VMError::report_and_die()+0x2ea
V  [libjvm.so+0x407539]  report_fatal(char const*, int, char const*)+0x59
V  [libjvm.so+0x551f47]  compute_offset(int&, klassOopDesc*, Symbol*, Symbol*, bool)+0x137
V  [libjvm.so+0x553169]  java_lang_String::compute_offsets()+0x39
V  [libjvm.so+0x830ea3]  SystemDictionary::initialize_preloaded_classes(Thread*)+0x143
V  [libjvm.so+0x87cf44]  Universe::genesis(Thread*)+0x474
V  [libjvm.so+0x87d3f4]  universe2_init()+0x24
V  [libjvm.so+0x50036d]  init_globals()+0xbd
V  [libjvm.so+0x863a62]  Threads::create_vm(JavaVMInitArgs*, bool*)+0x1e2
V  [libjvm.so+0x55ff34]  JNI_CreateJavaVM+0x74
C  [libjli.so+0x2f8e]  JavaMain+0x9e


---------------  P R O C E S S  ---------------

Java Threads: ( => current thread )

Other Threads:

=>0x00007fc608009000 (exited) JavaThread "Unknown thread" [_thread_in_vm, id=6159, stack(0x00007fc60de45000,0x00007fc60df46000)]

VM state:not at safepoint (not fully initialized)

VM Mutex/Monitor currently owned by a thread: None

GC Heap History (0 events):
No events

Deoptimization events (0 events):
No events

Internal exceptions (0 events):
No events

Events (10 events):
Event: 0.004 loading class 0x00007fc60802aa60 done
Event: 0.004 loading class 0x00007fc60802a300 done
Event: 0.004 loading class 0x00007fc60802a2d0
Event: 0.004 loading class 0x00007fc608055ae0
Event: 0.004 loading class 0x00007fc608055ae0 done
Event: 0.004 loading class 0x00007fc608055b20
Event: 0.004 loading class 0x00007fc608055b20 done
Event: 0.004 loading class 0x00007fc608055b60
Event: 0.004 loading class 0x00007fc608055b60 done
Event: 0.004 loading class 0x00007fc60802a2d0 done


Dynamic libraries:
00400000-00401000 r-xp 00000000 08:18 14027265                           /home/sorin/Programs/eclipse/jre/bin/java
00600000-00601000 rw-p 00000000 08:18 14027265                           /home/sorin/Programs/eclipse/jre/bin/java
0157c000-0159d000 rw-p 00000000 00:00 0                                  [heap]
77fc00000-7810c0000 rw-p 00000000 00:00 0 
7810c0000-784e00000 rw-p 00000000 00:00 0 
784e00000-78a010000 rw-p 00000000 00:00 0 
78a010000-7d6f60000 rw-p 00000000 00:00 0 
7d6f60000-7d9860000 rw-p 00000000 00:00 0 
7d9860000-800000000 rw-p 00000000 00:00 0 
7fc5e7fe0000-7fc5ec000000 rw-p 00000000 00:00 0 
7fc5ec000000-7fc5ec021000 rw-p 00000000 00:00 0 
7fc5ec021000-7fc5f0000000 ---p 00000000 00:00 0 
7fc5f0000000-7fc5f0021000 rw-p 00000000 00:00 0 
7fc5f0021000-7fc5f4000000 ---p 00000000 00:00 0 
7fc5f4000000-7fc5f4021000 rw-p 00000000 00:00 0 
7fc5f4021000-7fc5f8000000 ---p 00000000 00:00 0 
7fc5fc000000-7fc5fc021000 rw-p 00000000 00:00 0 
7fc5fc021000-7fc600000000 ---p 00000000 00:00 0 
7fc602401000-7fc6025f9000 rw-p 00000000 00:00 0 
7fc6025f9000-7fc6026d0000 r--s 013fe000 08:18 12983771                   /home/sorin/Programs/android-sdk-linux/platforms/android-19/android.jar
7fc6026d0000-7fc6036d8000 rw-p 00000000 00:00 0 
7fc6036d8000-7fc6036d9000 ---p 00000000 00:00 0 
7fc6036d9000-7fc6037d9000 rw-p 00000000 00:00 0                          [stack:6166]
7fc6037d9000-7fc6037da000 ---p 00000000 00:00 0 
7fc6037da000-7fc6038da000 rw-p 00000000 00:00 0                          [stack:6165]
7fc6038da000-7fc6038db000 ---p 00000000 00:00 0 
7fc6038db000-7fc6039db000 rw-p 00000000 00:00 0                          [stack:6164]
7fc6039db000-7fc6039dc000 ---p 00000000 00:00 0 
7fc6039dc000-7fc603b06000 rw-p 00000000 00:00 0                          [stack:6163]
7fc603b06000-7fc603d6d000 rw-p 00000000 00:00 0 
7fc603d6d000-7fc603d78000 rw-p 00000000 00:00 0 
7fc603d78000-7fc603d96000 rw-p 00000000 00:00 0 
7fc603d96000-7fc603dc0000 rw-p 00000000 00:00 0 
7fc603dc0000-7fc604026000 rw-p 00000000 00:00 0 
7fc604026000-7fc60403c000 rw-p 00000000 00:00 0 
7fc60403c000-7fc60416f000 rw-p 00000000 00:00 0 
7fc60416f000-7fc604170000 rw-p 00000000 00:00 0 
7fc604170000-7fc6043e0000 rwxp 00000000 00:00 0 
7fc6043e0000-7fc607170000 rw-p 00000000 00:00 0 
7fc607170000-7fc60718b000 r-xp 00000000 08:18 14027218                   /home/sorin/Programs/eclipse/jre/lib/amd64/libzip.so
7fc60718b000-7fc60738a000 ---p 0001b000 08:18 14027218                   /home/sorin/Programs/eclipse/jre/lib/amd64/libzip.so
7fc60738a000-7fc60738b000 rw-p 0001a000 08:18 14027218                   /home/sorin/Programs/eclipse/jre/lib/amd64/libzip.so
7fc60738b000-7fc607397000 r-xp 00000000 08:18 14944504                   /lib/x86_64-linux-gnu/libnss_files-2.17.so
7fc607397000-7fc607596000 ---p 0000c000 08:18 14944504                   /lib/x86_64-linux-gnu/libnss_files-2.17.so
7fc607596000-7fc607597000 r--p 0000b000 08:18 14944504                   /lib/x86_64-linux-gnu/libnss_files-2.17.so
7fc607597000-7fc607598000 rw-p 0000c000 08:18 14944504                   /lib/x86_64-linux-gnu/libnss_files-2.17.so
7fc607598000-7fc6075a3000 r-xp 00000000 08:18 14944502                   /lib/x86_64-linux-gnu/libnss_nis-2.17.so
7fc6075a3000-7fc6077a2000 ---p 0000b000 08:18 14944502                   /lib/x86_64-linux-gnu/libnss_nis-2.17.so
7fc6077a2000-7fc6077a3000 r--p 0000a000 08:18 14944502                   /lib/x86_64-linux-gnu/libnss_nis-2.17.so
7fc6077a3000-7fc6077a4000 rw-p 0000b000 08:18 14944502                   /lib/x86_64-linux-gnu/libnss_nis-2.17.so
7fc6077a4000-7fc6077bb000 r-xp 00000000 08:18 14943020                   /lib/x86_64-linux-gnu/libnsl-2.17.so
7fc6077bb000-7fc6079ba000 ---p 00017000 08:18 14943020                   /lib/x86_64-linux-gnu/libnsl-2.17.so
7fc6079ba000-7fc6079bb000 r--p 00016000 08:18 14943020                   /lib/x86_64-linux-gnu/libnsl-2.17.so
7fc6079bb000-7fc6079bc000 rw-p 00017000 08:18 14943020                   /lib/x86_64-linux-gnu/libnsl-2.17.so
7fc6079bc000-7fc6079be000 rw-p 00000000 00:00 0 
7fc6079be000-7fc6079c6000 r-xp 00000000 08:18 14944493                   /lib/x86_64-linux-gnu/libnss_compat-2.17.so
7fc6079c6000-7fc607bc5000 ---p 00008000 08:18 14944493                   /lib/x86_64-linux-gnu/libnss_compat-2.17.so
7fc607bc5000-7fc607bc6000 r--p 00007000 08:18 14944493                   /lib/x86_64-linux-gnu/libnss_compat-2.17.so
7fc607bc6000-7fc607bc7000 rw-p 00008000 08:18 14944493                   /lib/x86_64-linux-gnu/libnss_compat-2.17.so
7fc607bc7000-7fc607bf0000 r-xp 00000000 08:18 14027209                   /home/sorin/Programs/eclipse/jre/lib/amd64/libjava.so
7fc607bf0000-7fc607df0000 ---p 00029000 08:18 14027209                   /home/sorin/Programs/eclipse/jre/lib/amd64/libjava.so
7fc607df0000-7fc607df2000 rw-p 00029000 08:18 14027209                   /home/sorin/Programs/eclipse/jre/lib/amd64/libjava.so
7fc607df2000-7fc607dff000 r-xp 00000000 08:18 14027198                   /home/sorin/Programs/eclipse/jre/lib/amd64/libverify.so
7fc607dff000-7fc607ffe000 ---p 0000d000 08:18 14027198                   /home/sorin/Programs/eclipse/jre/lib/amd64/libverify.so
7fc607ffe000-7fc608000000 rw-p 0000c000 08:18 14027198                   /home/sorin/Programs/eclipse/jre/lib/amd64/libverify.so
7fc608000000-7fc60805f000 rw-p 00000000 00:00 0 
7fc60805f000-7fc60c000000 ---p 00000000 00:00 0 
7fc60c08d000-7fc60c0fa000 rw-p 00000000 00:00 0 
7fc60c0fa000-7fc60c118000 rw-p 00000000 00:00 0 
7fc60c118000-7fc60c11f000 r-xp 00000000 08:18 14944505                   /lib/x86_64-linux-gnu/librt-2.17.so
7fc60c11f000-7fc60c31e000 ---p 00007000 08:18 14944505                   /lib/x86_64-linux-gnu/librt-2.17.so
7fc60c31e000-7fc60c31f000 r--p 00006000 08:18 14944505                   /lib/x86_64-linux-gnu/librt-2.17.so
7fc60c31f000-7fc60c320000 rw-p 00007000 08:18 14944505                   /lib/x86_64-linux-gnu/librt-2.17.so
7fc60c320000-7fc60c423000 r-xp 00000000 08:18 14944496                   /lib/x86_64-linux-gnu/libm-2.17.so
7fc60c423000-7fc60c622000 ---p 00103000 08:18 14944496                   /lib/x86_64-linux-gnu/libm-2.17.so
7fc60c622000-7fc60c623000 r--p 00102000 08:18 14944496                   /lib/x86_64-linux-gnu/libm-2.17.so
7fc60c623000-7fc60c624000 rw-p 00103000 08:18 14944496                   /lib/x86_64-linux-gnu/libm-2.17.so
7fc60c624000-7fc60d065000 r-xp 00000000 08:18 14027216                   /home/sorin/Programs/eclipse/jre/lib/amd64/server/libjvm.so
7fc60d065000-7fc60d265000 ---p 00a41000 08:18 14027216                   /home/sorin/Programs/eclipse/jre/lib/amd64/server/libjvm.so
7fc60d265000-7fc60d308000 rw-p 00a41000 08:18 14027216                   /home/sorin/Programs/eclipse/jre/lib/amd64/server/libjvm.so
7fc60d308000-7fc60d344000 rw-p 00000000 00:00 0 
7fc60d344000-7fc60d501000 r-xp 00000000 08:18 14944510                   /lib/x86_64-linux-gnu/libc-2.17.so
7fc60d501000-7fc60d701000 ---p 001bd000 08:18 14944510                   /lib/x86_64-linux-gnu/libc-2.17.so
7fc60d701000-7fc60d705000 r--p 001bd000 08:18 14944510                   /lib/x86_64-linux-gnu/libc-2.17.so
7fc60d705000-7fc60d707000 rw-p 001c1000 08:18 14944510                   /lib/x86_64-linux-gnu/libc-2.17.so
7fc60d707000-7fc60d70c000 rw-p 00000000 00:00 0 
7fc60d70c000-7fc60d70f000 r-xp 00000000 08:18 14944511                   /lib/x86_64-linux-gnu/libdl-2.17.so
7fc60d70f000-7fc60d90e000 ---p 00003000 08:18 14944511                   /lib/x86_64-linux-gnu/libdl-2.17.so
7fc60d90e000-7fc60d90f000 r--p 00002000 08:18 14944511                   /lib/x86_64-linux-gnu/libdl-2.17.so
7fc60d90f000-7fc60d910000 rw-p 00003000 08:18 14944511                   /lib/x86_64-linux-gnu/libdl-2.17.so
7fc60d910000-7fc60d926000 r-xp 00000000 08:18 14027238                   /home/sorin/Programs/eclipse/jre/lib/amd64/jli/libjli.so
7fc60d926000-7fc60db26000 ---p 00016000 08:18 14027238                   /home/sorin/Programs/eclipse/jre/lib/amd64/jli/libjli.so
7fc60db26000-7fc60db27000 rw-p 00016000 08:18 14027238                   /home/sorin/Programs/eclipse/jre/lib/amd64/jli/libjli.so
7fc60db27000-7fc60db3e000 r-xp 00000000 08:18 14944512                   /lib/x86_64-linux-gnu/libpthread-2.17.so
7fc60db3e000-7fc60dd3e000 ---p 00017000 08:18 14944512                   /lib/x86_64-linux-gnu/libpthread-2.17.so
7fc60dd3e000-7fc60dd3f000 r--p 00017000 08:18 14944512                   /lib/x86_64-linux-gnu/libpthread-2.17.so
7fc60dd3f000-7fc60dd40000 rw-p 00018000 08:18 14944512                   /lib/x86_64-linux-gnu/libpthread-2.17.so
7fc60dd40000-7fc60dd44000 rw-p 00000000 00:00 0 
7fc60dd44000-7fc60dd67000 r-xp 00000000 08:18 14944499                   /lib/x86_64-linux-gnu/ld-2.17.so
7fc60dd85000-7fc60dd8f000 rw-p 00000000 00:00 0 
7fc60dd8f000-7fc60de45000 rw-p 00000000 00:00 0 
7fc60de45000-7fc60de48000 ---p 00000000 00:00 0 
7fc60de48000-7fc60df4a000 rw-p 00000000 00:00 0                          [stack:6159]
7fc60df58000-7fc60df5a000 rw-p 00000000 00:00 0 
7fc60df5a000-7fc60df62000 rw-s 00000000 08:18 1969861                    /tmp/hsperfdata_sorin/6157
7fc60df62000-7fc60df63000 rw-p 00000000 00:00 0 
7fc60df63000-7fc60df64000 r--p 00000000 00:00 0 
7fc60df64000-7fc60df66000 rw-p 00000000 00:00 0 
7fc60df66000-7fc60df67000 r--p 00022000 08:18 14944499                   /lib/x86_64-linux-gnu/ld-2.17.so
7fc60df67000-7fc60df69000 rw-p 00023000 08:18 14944499                   /lib/x86_64-linux-gnu/ld-2.17.so
7fff36f8c000-7fff36fae000 rw-p 00000000 00:00 0                          [stack]
7fff36fcd000-7fff36fcf000 r-xp 00000000 00:00 0                          [vdso]
ffffffffff600000-ffffffffff601000 r-xp 00000000 00:00 0                  [vsyscall]

VM Arguments:
jvm_args: -Dfile.encoding=UTF-8 -Xbootclasspath:/home/sorin/Programs/android-sdk-linux/platforms/android-19/android.jar 
java_command: com.adisorin.drivingschool.DrivingTestActivity
Launcher Type: SUN_STANDARD

Environment Variables:
JAVA_HOME=/home/sorin/Programs/jdk1.7.0_25
PATH=/usr/lib/lightdm/lightdm:/usr/local/sbin:/usr/local/bin:/usr/sbin:/usr/bin:/sbin:/bin:/usr/games:/usr/local/games:/home/sorin/Programs/netbeans-7.3.1/bin:/home/sorin/Programs/eclipse/eclipse:/home/sorin/Programs/netbeans-7.3.1/bin:/home/sorin/Programs/eclipse:/home/sorin/Programs/jdk1.7.0_25/bin:/home/sorin/Programs/android-sdk-linux/tools:/home/sorin/Programs/android-sdk-linux/platform-tools
SHELL=/bin/bash
DISPLAY=:0

Signal Handlers:
SIGSEGV: [libjvm.so+0x8a26a0], sa_mask[0]=0x7ffbfeff, sa_flags=0x10000004
SIGBUS: [libjvm.so+0x8a26a0], sa_mask[0]=0x7ffbfeff, sa_flags=0x10000004
SIGFPE: [libjvm.so+0x73f3d0], sa_mask[0]=0x7ffbfeff, sa_flags=0x10000004
SIGPIPE: [libjvm.so+0x73f3d0], sa_mask[0]=0x7ffbfeff, sa_flags=0x10000004
SIGXFSZ: [libjvm.so+0x73f3d0], sa_mask[0]=0x7ffbfeff, sa_flags=0x10000004
SIGILL: [libjvm.so+0x73f3d0], sa_mask[0]=0x7ffbfeff, sa_flags=0x10000004
SIGUSR1: SIG_DFL, sa_mask[0]=0x00000000, sa_flags=0x00000000
SIGUSR2: [libjvm.so+0x73ed20], sa_mask[0]=0x00000004, sa_flags=0x10000004
SIGHUP: SIG_DFL, sa_mask[0]=0x00000000, sa_flags=0x00000000
SIGINT: SIG_DFL, sa_mask[0]=0x00000000, sa_flags=0x00000000
SIGTERM: SIG_DFL, sa_mask[0]=0x00000000, sa_flags=0x00000000
SIGQUIT: SIG_DFL, sa_mask[0]=0x00000000, sa_flags=0x00000000


---------------  S Y S T E M  ---------------

OS:wheezy/sid

uname:Linux 3.11.0-26-generic #45-Ubuntu SMP Tue Jul 15 04:02:06 UTC 2014 x86_64
libc:glibc 2.17 NPTL 2.17 
rlimit: STACK 8192k, CORE 0k, NPROC 62833, NOFILE 4096, AS infinity
load average:1.37 0.91 0.78

/proc/meminfo:
MemTotal:        8062968 kB
MemFree:         2975548 kB
Buffers:          139620 kB
Cached:          2835440 kB
SwapCached:            0 kB
Active:          2729020 kB
Inactive:        2142620 kB
Active(anon):    1899500 kB
Inactive(anon):  1225136 kB
Active(file):     829520 kB
Inactive(file):   917484 kB
Unevictable:          32 kB
Mlocked:              32 kB
SwapTotal:       8272892 kB
SwapFree:        8272892 kB
Dirty:               920 kB
Writeback:             0 kB
AnonPages:       1896976 kB
Mapped:           224484 kB
Shmem:           1228060 kB
Slab:              96408 kB
SReclaimable:      66284 kB
SUnreclaim:        30124 kB
KernelStack:        4328 kB
PageTables:        31224 kB
NFS_Unstable:          0 kB
Bounce:                0 kB
WritebackTmp:          0 kB
CommitLimit:    12304376 kB
Committed_AS:    9106788 kB
VmallocTotal:   34359738367 kB
VmallocUsed:      360828 kB
VmallocChunk:   34359374236 kB
HardwareCorrupted:     0 kB
AnonHugePages:         0 kB
HugePages_Total:       0
HugePages_Free:        0
HugePages_Rsvd:        0
HugePages_Surp:        0
Hugepagesize:       2048 kB
DirectMap4k:       70064 kB
DirectMap2M:     2961408 kB
DirectMap1G:     5242880 kB


CPU:total 4 (4 cores per cpu, 1 threads per core) family 6 model 60 stepping 3, cmov, cx8, fxsr, mmx, sse, sse2, sse3, ssse3, sse4.1, sse4.2, popcnt, avx, avx2, tsc, tscinvbit

/proc/cpuinfo:
processor	: 0
vendor_id	: GenuineIntel
cpu family	: 6
model		: 60
model name	: Intel(R) Core(TM) i5-4570 CPU @ 3.20GHz
stepping	: 3
microcode	: 0x7
cpu MHz		: 2900.000
cache size	: 6144 KB
physical id	: 0
siblings	: 4
core id		: 0
cpu cores	: 4
apicid		: 0
initial apicid	: 0
fpu		: yes
fpu_exception	: yes
cpuid level	: 13
wp		: yes
flags		: fpu vme de pse tsc msr pae mce cx8 apic sep mtrr pge mca cmov pat pse36 clflush dts acpi mmx fxsr sse sse2 ss ht tm pbe syscall nx pdpe1gb rdtscp lm constant_tsc arch_perfmon pebs bts rep_good nopl xtopology nonstop_tsc aperfmperf eagerfpu pni pclmulqdq dtes64 monitor ds_cpl vmx smx est tm2 ssse3 fma cx16 xtpr pdcm pcid sse4_1 sse4_2 x2apic movbe popcnt tsc_deadline_timer aes xsave avx f16c rdrand lahf_lm abm ida arat xsaveopt pln pts dtherm tpr_shadow vnmi flexpriority ept vpid fsgsbase tsc_adjust bmi1 hle avx2 smep bmi2 erms invpcid rtm
bogomips	: 6385.54
clflush size	: 64
cache_alignment	: 64
address sizes	: 39 bits physical, 48 bits virtual
power management:

processor	: 1
vendor_id	: GenuineIntel
cpu family	: 6
model		: 60
model name	: Intel(R) Core(TM) i5-4570 CPU @ 3.20GHz
stepping	: 3
microcode	: 0x7
cpu MHz		: 3201.000
cache size	: 6144 KB
physical id	: 0
siblings	: 4
core id		: 1
cpu cores	: 4
apicid		: 2
initial apicid	: 2
fpu		: yes
fpu_exception	: yes
cpuid level	: 13
wp		: yes
flags		: fpu vme de pse tsc msr pae mce cx8 apic sep mtrr pge mca cmov pat pse36 clflush dts acpi mmx fxsr sse sse2 ss ht tm pbe syscall nx pdpe1gb rdtscp lm constant_tsc arch_perfmon pebs bts rep_good nopl xtopology nonstop_tsc aperfmperf eagerfpu pni pclmulqdq dtes64 monitor ds_cpl vmx smx est tm2 ssse3 fma cx16 xtpr pdcm pcid sse4_1 sse4_2 x2apic movbe popcnt tsc_deadline_timer aes xsave avx f16c rdrand lahf_lm abm ida arat xsaveopt pln pts dtherm tpr_shadow vnmi flexpriority ept vpid fsgsbase tsc_adjust bmi1 hle avx2 smep bmi2 erms invpcid rtm
bogomips	: 6385.54
clflush size	: 64
cache_alignment	: 64
address sizes	: 39 bits physical, 48 bits virtual
power management:

processor	: 2
vendor_id	: GenuineIntel
cpu family	: 6
model		: 60
model name	: Intel(R) Core(TM) i5-4570 CPU @ 3.20GHz
stepping	: 3
microcode	: 0x7
cpu MHz		: 2200.000
cache size	: 6144 KB
physical id	: 0
siblings	: 4
core id		: 2
cpu cores	: 4
apicid		: 4
initial apicid	: 4
fpu		: yes
fpu_exception	: yes
cpuid level	: 13
wp		: yes
flags		: fpu vme de pse tsc msr pae mce cx8 apic sep mtrr pge mca cmov pat pse36 clflush dts acpi mmx fxsr sse sse2 ss ht tm pbe syscall nx pdpe1gb rdtscp lm constant_tsc arch_perfmon pebs bts rep_good nopl xtopology nonstop_tsc aperfmperf eagerfpu pni pclmulqdq dtes64 monitor ds_cpl vmx smx est tm2 ssse3 fma cx16 xtpr pdcm pcid sse4_1 sse4_2 x2apic movbe popcnt tsc_deadline_timer aes xsave avx f16c rdrand lahf_lm abm ida arat xsaveopt pln pts dtherm tpr_shadow vnmi flexpriority ept vpid fsgsbase tsc_adjust bmi1 hle avx2 smep bmi2 erms invpcid rtm
bogomips	: 6385.54
clflush size	: 64
cache_alignment	: 64
address sizes	: 39 bits physical, 48 bits virtual
power management:

processor	: 3
vendor_id	: GenuineIntel
cpu family	: 6
model		: 60
model name	: Intel(R) Core(TM) i5-4570 CPU @ 3.20GHz
stepping	: 3
microcode	: 0x7
cpu MHz		: 2900.000
cache size	: 6144 KB
physical id	: 0
siblings	: 4
core id		: 3
cpu cores	: 4
apicid		: 6
initial apicid	: 6
fpu		: yes
fpu_exception	: yes
cpuid level	: 13
wp		: yes
flags		: fpu vme de pse tsc msr pae mce cx8 apic sep mtrr pge mca cmov pat pse36 clflush dts acpi mmx fxsr sse sse2 ss ht tm pbe syscall nx pdpe1gb rdtscp lm constant_tsc arch_perfmon pebs bts rep_good nopl xtopology nonstop_tsc aperfmperf eagerfpu pni pclmulqdq dtes64 monitor ds_cpl vmx smx est tm2 ssse3 fma cx16 xtpr pdcm pcid sse4_1 sse4_2 x2apic movbe popcnt tsc_deadline_timer aes xsave avx f16c rdrand lahf_lm abm ida arat xsaveopt pln pts dtherm tpr_shadow vnmi flexpriority ept vpid fsgsbase tsc_adjust bmi1 hle avx2 smep bmi2 erms invpcid rtm
bogomips	: 6385.54
clflush size	: 64
cache_alignment	: 64
address sizes	: 39 bits physical, 48 bits virtual
power management:



Memory: 4k page, physical 8062968k(2975548k free), swap 8272892k(8272892k free)

vm_info: Java HotSpot(TM) 64-Bit Server VM (23.25-b01) for linux-amd64 JRE (1.7.0_25-b15), built on Jun  5 2013 20:48:36 by "java_re" with gcc 4.3.0 20080428 (Red Hat 4.3.0-8)

time: Mon Jul 21 21:19:14 2014
elapsed time: 0 seconds

